{
  "project_info": {
    "project_number": "941806570804",
    "firebase_url": "https://listadelacompra-5758c-default-rtdb.europe-west1.firebasedatabase.app",
    "project_id": "listadelacompra-5758c",
    "storage_bucket": "listadelacompra-5758c.appspot.com"
  },
  "client": [
    {
      "client_info": {
        "mobilesdk_app_id": "1:941806570804:android:58bac6b89f267f096ee961",
        "android_client_info": {
          "package_name": "com.example.listadelacompra"
        }
      },
      "oauth_client": [],
      "api_key": [
        {
          "current_key": "AIzaSyApntWceaDjPp487s1lBYJqJO0G6DhslnE"
        }
      ],
      "services": {
        "appinvite_service": {
          "other_platform_oauth_client": []
        }
      }
    }
  ],
  "configuration_version": "1"
}